%YAML 1.1
%TAG !u! tag:unity3d.com,2011:
--- !u!114 &-1658960478407648048
MonoBehaviour:
  m_ObjectHideFlags: 3
  m_CorrespondingSourceObject: {fileID: 0}
  m_PrefabInstance: {fileID: 0}
  m_PrefabAsset: {fileID: 0}
  m_GameObject: {fileID: 0}
  m_Enabled: 1
  m_EditorHideFlags: 0
  m_Script: {fileID: 11500000, guid: 59b6606ef2548734bb6d11b9d160bc7e, type: 3}
  m_Name: HDRISky
  m_EditorClassIdentifier: 
  active: 1
  rotation:
    m_OverrideState: 0
    m_Value: 0
  skyIntensityMode:
    m_OverrideState: 1
    m_Value: 0
  exposure:
    m_OverrideState: 1
    m_Value: 10
  multiplier:
    m_OverrideState: 0
    m_Value: 1
  upperHemisphereLuxValue:
    m_OverrideState: 0
    m_Value: 0.46607146
  upperHemisphereLuxColor:
    m_OverrideState: 0
    m_Value: {x: 0.18750611, y: 0.29181966, z: 0.5}
  desiredLuxValue:
    m_OverrideState: 0
    m_Value: 20000
  updateMode:
    m_OverrideState: 0
    m_Value: 0
  updatePeriod:
    m_OverrideState: 0
    m_Value: 0
  includeSunInBaking:
    m_OverrideState: 0
    m_Value: 0
  hdriSky:
    m_OverrideState: 1
    m_Value: {fileID: 8900000, guid: 133b4b8d6d77a23489a086cdbcd5e4af, type: 3}
  distortionMode:
    m_OverrideState: 0
    m_Value: 0
  flowmap:
    m_OverrideState: 0
    m_Value: {fileID: 0}
  upperHemisphereOnly:
    m_OverrideState: 0
    m_Value: 1
  scrollOrientation:
    m_OverrideState: 0
    m_Value:
      mode: 1
      customValue: 0
      additiveValue: 0
      multiplyValue: 1
  scrollSpeed:
    m_OverrideState: 0
    m_Value:
      mode: 1
      customValue: 100
      additiveValue: 0
      multiplyValue: 1
  enableBackplate:
    m_OverrideState: 0
    m_Value: 0
  backplateType:
    m_OverrideState: 0
    m_Value: 0
  groundLevel:
    m_OverrideState: 0
    m_Value: 0
  scale:
    m_OverrideState: 0
    m_Value: {x: 32, y: 32}
  projectionDistance:
    m_OverrideState: 0
    m_Value: 16
  plateRotation:
    m_OverrideState: 0
    m_Value: 0
  plateTexRotation:
    m_OverrideState: 0
    m_Value: 0
  plateTexOffset:
    m_OverrideState: 0
    m_Value: {x: 0, y: 0}
  blendAmount:
    m_OverrideState: 0
    m_Value: 0
  shadowTint:
    m_OverrideState: 0
    m_Value: {r: 0.5, g: 0.5, b: 0.5, a: 1}
  pointLightShadow:
    m_OverrideState: 0
    m_Value: 0
  dirLightShadow:
    m_OverrideState: 0
    m_Value: 0
  rectLightShadow:
    m_OverrideState: 0
    m_Value: 0
  m_SkyVersion: 1
  enableDistortion:
    m_OverrideState: 0
    m_Value: 0
  procedural:
    m_OverrideState: 0
    m_Value: 1
  scrollDirection:
    m_OverrideState: 0
    m_Value: 0
  m_ObsoleteScrollSpeed:
    m_OverrideState: 0
    m_Value: 2
--- !u!114 &-362166473439605697
MonoBehaviour:
  m_ObjectHideFlags: 3
  m_CorrespondingSourceObject: {fileID: 0}
  m_PrefabInstance: {fileID: 0}
  m_PrefabAsset: {fileID: 0}
  m_GameObject: {fileID: 0}
  m_Enabled: 1
  m_EditorHideFlags: 0
  m_Script: {fileID: 11500000, guid: 32b6af8f7ad32324cb6941c3290e5895, type: 3}
  m_Name: MicroShadowing
  m_EditorClassIdentifier: 
  active: 1
  enable:
    m_OverrideState: 1
    m_Value: 1
  opacity:
    m_OverrideState: 1
    m_Value: 0.8
--- !u!114 &11400000
MonoBehaviour:
  m_ObjectHideFlags: 0
  m_CorrespondingSourceObject: {fileID: 0}
  m_PrefabInstance: {fileID: 0}
  m_PrefabAsset: {fileID: 0}
  m_GameObject: {fileID: 0}
  m_Enabled: 1
  m_EditorHideFlags: 0
  m_Script: {fileID: 11500000, guid: d7fd9488000d3734a9e00ee676215985, type: 3}
  m_Name: HD FogSkyandFogSettings
  m_EditorClassIdentifier: 
  components:
  - {fileID: 3912485203739470195}
  - {fileID: -1658960478407648048}
  - {fileID: 5321722785694334585}
  - {fileID: 8535130800893617976}
  - {fileID: -362166473439605697}
  - {fileID: 1426173536259983027}
--- !u!114 &1426173536259983027
MonoBehaviour:
  m_ObjectHideFlags: 3
  m_CorrespondingSourceObject: {fileID: 0}
  m_PrefabInstance: {fileID: 0}
  m_PrefabAsset: {fileID: 0}
  m_GameObject: {fileID: 0}
  m_Enabled: 1
  m_EditorHideFlags: 0
  m_Script: {fileID: 11500000, guid: 7ddcec8a8eb2d684d833ac8f5d26aebd, type: 3}
  m_Name: 
  m_EditorClassIdentifier: 
  active: 1
  maxShadowDistance:
    m_OverrideState: 1
    m_Value: 900
  directionalTransmissionMultiplier:
    m_OverrideState: 0
    m_Value: 1
  cascadeShadowSplitCount:
    m_OverrideState: 1
    m_Value: 4
  cascadeShadowSplit0:
    m_OverrideState: 1
    m_Value: 0.01
  cascadeShadowSplit1:
    m_OverrideState: 1
    m_Value: 0.017
  cascadeShadowSplit2:
    m_OverrideState: 1
    m_Value: 0.057
  cascadeShadowBorder0:
    m_OverrideState: 1
    m_Value: 0.22
  cascadeShadowBorder1:
    m_OverrideState: 1
    m_Value: 0.3492063
  cascadeShadowBorder2:
    m_OverrideState: 1
    m_Value: 0.18611111
  cascadeShadowBorder3:
    m_OverrideState: 1
    m_Value: 0
--- !u!114 &3912485203739470195
MonoBehaviour:
  m_ObjectHideFlags: 3
  m_CorrespondingSourceObject: {fileID: 0}
  m_PrefabInstance: {fileID: 0}
  m_PrefabAsset: {fileID: 0}
  m_GameObject: {fileID: 0}
  m_Enabled: 1
  m_EditorHideFlags: 0
  m_Script: {fileID: 11500000, guid: 0d7593b3a9277ac4696b20006c21dde2, type: 3}
  m_Name: 
  m_EditorClassIdentifier: 
  active: 1
  skyType:
    m_OverrideState: 1
    m_Value: 1
  cloudType:
    m_OverrideState: 0
    m_Value: 0
  skyAmbientMode:
    m_OverrideState: 1
    m_Value: 1
  windOrientation:
    m_OverrideState: 0
    m_Value: 0
  windSpeed:
    m_OverrideState: 0
    m_Value: 100
  fogType:
    m_OverrideState: 1
    m_Value: 3
--- !u!114 &5321722785694334585
MonoBehaviour:
  m_ObjectHideFlags: 3
  m_CorrespondingSourceObject: {fileID: 0}
  m_PrefabInstance: {fileID: 0}
  m_PrefabAsset: {fileID: 0}
  m_GameObject: {fileID: 0}
  m_Enabled: 1
  m_EditorHideFlags: 0
  m_Script: {fileID: 11500000, guid: 953beb541740ddc499d005ee80c9ff29, type: 3}
  m_Name: Fog
  m_EditorClassIdentifier: 
  active: 1
  quality:
    m_OverrideState: 1
    m_Value: 1
  enabled:
    m_OverrideState: 1
    m_Value: 1
  colorMode:
    m_OverrideState: 1
    m_Value: 1
  color:
    m_OverrideState: 0
    m_Value: {r: 0.5, g: 0.5, b: 0.5, a: 1}
  tint:
    m_OverrideState: 0
    m_Value: {r: 1, g: 1, b: 1, a: 1}
  maxFogDistance:
    m_OverrideState: 1
    m_Value: 5000
  mipFogMaxMip:
    m_OverrideState: 0
    m_Value: 0.5
  mipFogNear:
    m_OverrideState: 0
    m_Value: 0
  mipFogFar:
    m_OverrideState: 0
    m_Value: 1000
  baseHeight:
    m_OverrideState: 1
    m_Value: 0
  maximumHeight:
    m_OverrideState: 1
    m_Value: 50
  meanFreePath:
    m_OverrideState: 1
    m_Value: 29.6
  enableVolumetricFog:
    m_OverrideState: 1
    m_Value: 1
  albedo:
    m_OverrideState: 1
    m_Value: {r: 1, g: 1, b: 1, a: 1}
  globalLightProbeDimmer:
    m_OverrideState: 1
    m_Value: 1
  depthExtent:
    m_OverrideState: 0
    m_Value: 64
  denoisingMode:
    m_OverrideState: 1
    m_Value: 3
  anisotropy:
    m_OverrideState: 1
    m_Value: 0.606
  sliceDistributionUniformity:
    m_OverrideState: 1
    m_Value: 0.091
  m_FogControlMode:
    m_OverrideState: 1
    m_Value: 0
  screenResolutionPercentage:
    m_OverrideState: 0
    m_Value: 12.5
  volumeSliceCount:
    m_OverrideState: 0
    m_Value: 64
  m_VolumetricFogBudget:
    m_OverrideState: 1
    m_Value: 0.333
  m_ResolutionDepthRatio:
    m_OverrideState: 1
    m_Value: 0.5
  directionalLightsOnly:
    m_OverrideState: 0
    m_Value: 0
--- !u!114 &8535130800893617976
MonoBehaviour:
  m_ObjectHideFlags: 3
  m_CorrespondingSourceObject: {fileID: 0}
  m_PrefabInstance: {fileID: 0}
  m_PrefabAsset: {fileID: 0}
  m_GameObject: {fileID: 0}
  m_Enabled: 1
  m_EditorHideFlags: 0
  m_Script: {fileID: 11500000, guid: 56b145d2b9ee1ac4f846968484e7485a, type: 3}
  m_Name: ContactShadows
  m_EditorClassIdentifier: 
  active: 1
  quality:
    m_OverrideState: 1
    m_Value: 1
  enable:
    m_OverrideState: 1
    m_Value: 1
  length:
    m_OverrideState: 1
    m_Value: 0.12
  opacity:
    m_OverrideState: 1
    m_Value: 0.6
  distanceScaleFactor:
    m_OverrideState: 1
    m_Value: 0.5
  maxDistance:
    m_OverrideState: 1
    m_Value: 50
  minDistance:
    m_OverrideState: 0
    m_Value: 0
  fadeDistance:
    m_OverrideState: 1
    m_Value: 5
  fadeInDistance:
    m_OverrideState: 0
    m_Value: 0
  rayBias:
    m_OverrideState: 0
    m_Value: 0.2
  thicknessScale:
    m_OverrideState: 0
    m_Value: 0.15
  m_SampleCount:
    m_OverrideState: 1
    m_Value: 8
