%YAML 1.1
%TAG !u! tag:unity3d.com,2011:
--- !u!21 &2100000
Material:
  serializedVersion: 6
  m_ObjectHideFlags: 0
  m_CorrespondingSourceObject: {fileID: 0}
  m_PrefabInstance: {fileID: 0}
  m_PrefabAsset: {fileID: 0}
  m_Name: M_detail_meadow_grass_01
  m_Shader: {fileID: 4800000, guid: adce0b63bca75a84e9f786201b7d7b0b, type: 3}
  m_ShaderKeywords: _ALPHATEST_ON _DISABLE_SSR_TRANSPARENT _DOUBLESIDED_ON
  m_LightmapFlags: 4
  m_EnableInstancingVariants: 1
  m_DoubleSidedGI: 1
  m_CustomRenderQueue: 2475
  stringTagMap:
    MotionVector: User
    RenderType: TransparentCutout
  disabledShaderPasses:
  - TransparentBackface
  - MOTIONVECTORS
  - TransparentDepthPrepass
  - TransparentDepthPostpass
  - RayTracingPrepass
  m_SavedProperties:
    serializedVersion: 3
    m_TexEnvs:
    - _AmbientOcclusionG:
        m_Texture: {fileID: 2800000, guid: 40e153426f7a9d34d84918f9fc93f44d, type: 3}
        m_Scale: {x: 1, y: 1}
        m_Offset: {x: 0, y: 0}
    - _AnisotropyMap:
        m_Texture: {fileID: 0}
        m_Scale: {x: 1, y: 1}
        m_Offset: {x: 0, y: 0}
    - _BaseColorMap:
        m_Texture: {fileID: 2800000, guid: 118970ee14c725f4d964f32ee70dea6f, type: 3}
        m_Scale: {x: 1, y: 1}
        m_Offset: {x: 0, y: 0}
    - _BentNormalMap:
        m_Texture: {fileID: 0}
        m_Scale: {x: 1, y: 1}
        m_Offset: {x: 0, y: 0}
    - _BentNormalMapOS:
        m_Texture: {fileID: 0}
        m_Scale: {x: 1, y: 1}
        m_Offset: {x: 0, y: 0}
    - _BumpMap:
        m_Texture: {fileID: 2800000, guid: 5dfa928cbada5a94d806b9c565e941d5, type: 3}
        m_Scale: {x: 1, y: 1}
        m_Offset: {x: 0, y: 0}
    - _CoatMaskMap:
        m_Texture: {fileID: 0}
        m_Scale: {x: 1, y: 1}
        m_Offset: {x: 0, y: 0}
    - _DetailAlbedoMap:
        m_Texture: {fileID: 0}
        m_Scale: {x: 1, y: 1}
        m_Offset: {x: 0, y: 0}
    - _DetailMap:
        m_Texture: {fileID: 0}
        m_Scale: {x: 1, y: 1}
        m_Offset: {x: 0, y: 0}
    - _DetailMask:
        m_Texture: {fileID: 0}
        m_Scale: {x: 1, y: 1}
        m_Offset: {x: 0, y: 0}
    - _DetailNormalMap:
        m_Texture: {fileID: 0}
        m_Scale: {x: 1, y: 1}
        m_Offset: {x: 0, y: 0}
    - _DistortionVectorMap:
        m_Texture: {fileID: 0}
        m_Scale: {x: 1, y: 1}
        m_Offset: {x: 0, y: 0}
    - _EmissionMap:
        m_Texture: {fileID: 0}
        m_Scale: {x: 1, y: 1}
        m_Offset: {x: 0, y: 0}
    - _EmissiveColorMap:
        m_Texture: {fileID: 0}
        m_Scale: {x: 1, y: 1}
        m_Offset: {x: 0, y: 0}
    - _HeightMap:
        m_Texture: {fileID: 0}
        m_Scale: {x: 1, y: 1}
        m_Offset: {x: 0, y: 0}
    - _IridescenceMaskMap:
        m_Texture: {fileID: 0}
        m_Scale: {x: 1, y: 1}
        m_Offset: {x: 0, y: 0}
    - _IridescenceThicknessMap:
        m_Texture: {fileID: 0}
        m_Scale: {x: 1, y: 1}
        m_Offset: {x: 0, y: 0}
    - _MainTex:
        m_Texture: {fileID: 2800000, guid: 118970ee14c725f4d964f32ee70dea6f, type: 3}
        m_Scale: {x: 1, y: 1}
        m_Offset: {x: 0, y: 0}
    - _MaskMap:
        m_Texture: {fileID: 2800000, guid: fef5d08970dcd0842a3c6baa5371ea9e, type: 3}
        m_Scale: {x: 1, y: 1}
        m_Offset: {x: 0, y: 0}
    - _MetalicRAOGSmothnessA:
        m_Texture: {fileID: 2800000, guid: fef5d08970dcd0842a3c6baa5371ea9e, type: 3}
        m_Scale: {x: 1, y: 1}
        m_Offset: {x: 0, y: 0}
    - _MetallicGlossMap:
        m_Texture: {fileID: 2800000, guid: fef5d08970dcd0842a3c6baa5371ea9e, type: 3}
        m_Scale: {x: 1, y: 1}
        m_Offset: {x: 0, y: 0}
    - _NormalMap:
        m_Texture: {fileID: 2800000, guid: 5dfa928cbada5a94d806b9c565e941d5, type: 3}
        m_Scale: {x: 1, y: 1}
        m_Offset: {x: 0, y: 0}
    - _NormalMapOS:
        m_Texture: {fileID: 0}
        m_Scale: {x: 1, y: 1}
        m_Offset: {x: 0, y: 0}
    - _OcclusionMap:
        m_Texture: {fileID: 2800000, guid: fef5d08970dcd0842a3c6baa5371ea9e, type: 3}
        m_Scale: {x: 1, y: 1}
        m_Offset: {x: 0, y: 0}
    - _ParallaxMap:
        m_Texture: {fileID: 0}
        m_Scale: {x: 1, y: 1}
        m_Offset: {x: 0, y: 0}
    - _SpecularColorMap:
        m_Texture: {fileID: 0}
        m_Scale: {x: 1, y: 1}
        m_Offset: {x: 0, y: 0}
    - _SubsurfaceMaskMap:
        m_Texture: {fileID: 0}
        m_Scale: {x: 1, y: 1}
        m_Offset: {x: 0, y: 0}
    - _TangentMap:
        m_Texture: {fileID: 0}
        m_Scale: {x: 1, y: 1}
        m_Offset: {x: 0, y: 0}
    - _TangentMapOS:
        m_Texture: {fileID: 0}
        m_Scale: {x: 1, y: 1}
        m_Offset: {x: 0, y: 0}
    - _ThicknessMap:
        m_Texture: {fileID: 0}
        m_Scale: {x: 1, y: 1}
        m_Offset: {x: 0, y: 0}
    - _TransmittanceColorMap:
        m_Texture: {fileID: 0}
        m_Scale: {x: 1, y: 1}
        m_Offset: {x: 0, y: 0}
    - _texcoord:
        m_Texture: {fileID: 0}
        m_Scale: {x: 1, y: 1}
        m_Offset: {x: 0, y: 0}
    - unity_Lightmaps:
        m_Texture: {fileID: 0}
        m_Scale: {x: 1, y: 1}
        m_Offset: {x: 0, y: 0}
    - unity_LightmapsInd:
        m_Texture: {fileID: 0}
        m_Scale: {x: 1, y: 1}
        m_Offset: {x: 0, y: 0}
    - unity_ShadowMasks:
        m_Texture: {fileID: 0}
        m_Scale: {x: 1, y: 1}
        m_Offset: {x: 0, y: 0}
    m_Ints: []
    m_Floats:
    - _AORemapMax: 1
    - _AORemapMin: 0
    - _ATDistance: 1
    - _AddPrecomputedVelocity: 0
    - _AlbedoAffectEmissive: 0
    - _AlphaCutoff: 0.375
    - _AlphaCutoffEnable: 1
    - _AlphaCutoffPostpass: 0.5
    - _AlphaCutoffPrepass: 0.5
    - _AlphaCutoffShadow: 0.5
    - _AlphaDrag: 0
    - _AlphaDstBlend: 0
    - _AlphaShadowThreshold: 0.5
    - _AlphaSrcBlend: 1
    - _AlphaToMask: 0
    - _AlphaToMaskInspectorValue: 0
    - _AmbientOcclusionPower: 1
    - _Anisotropy: 0
    - _BackFaceMirrorNormal: 1
    - _BlendMode: 0
    - _BumpScale: 1
    - _CoatMask: 0
    - _ColorNoiseSpread: 10
    - _ConservativeDepthOffsetEnable: 0
    - _CullFarDistance: 5
    - _CullFarStart: 20
    - _CullMode: 0
    - _CullModeForward: 0
    - _Cutoff: 0.375
    - _DISTANCEBLEND: 1
    - _DepthOffsetEnable: 0
    - _DetailAlbedoScale: 1
    - _DetailNormalMapScale: 1
    - _DetailNormalScale: 1
    - _DetailSmoothnessScale: 1
    - _DiffusionProfile: 2
    - _DiffusionProfileHash: 2.8835268
    - _DisplacementLockObjectScale: 1
    - _DisplacementLockTilingScale: 1
    - _DisplacementMode: 0
    - _DistortionBlendMode: 0
    - _DistortionBlurBlendMode: 0
    - _DistortionBlurDstBlend: 1
    - _DistortionBlurRemapMax: 1
    - _DistortionBlurRemapMin: 0
    - _DistortionBlurScale: 1
    - _DistortionBlurSrcBlend: 1
    - _DistortionDepthTest: 1
    - _DistortionDstBlend: 1
    - _DistortionEnable: 0
    - _DistortionScale: 1
    - _DistortionSrcBlend: 1
    - _DistortionVectorBias: -1
    - _DistortionVectorScale: 2
    - _DoubleSidedEnable: 1
    - _DoubleSidedGIMode: 0
    - _DoubleSidedNormalMode: 1
    - _Drag: 0.0001
    - _DstBlend: 0
    - _EmissiveColorMode: 1
    - _EmissiveExposureWeight: 1
    - _EmissiveIntensity: 0
    - _EmissiveIntensityUnit: 0
    - _EnableBlendModePreserveSpecularLighting: 1
    - _EnableFogOnTransparent: 1
    - _EnableGeometricSpecularAA: 0
    - _EnableMotionVectorForVertexAnimation: 0
    - _EnableSpecularOcclusion: 0
    - _EnableWind: 0
    - _EnergyConservingSpecularColor: 1
    - _GlossMapScale: 1
    - _Glossiness: 0.5
    - _GlossyReflections: 1
    - _HdrpVersion: 1
    - _HeightAmplitude: 0.02
    - _HeightCenter: 0.5
    - _HeightDrag: 0
    - _HeightMapParametrization: 0
    - _HeightMax: 1
    - _HeightMin: -1
    - _HeightOffset: 0
    - _HeightPoMAmplitude: 2
    - _HeightTessAmplitude: 2
    - _HeightTessCenter: 0.5
    - _InitialBend: 0
    - _InvTilingScale: 1
    - _Ior: 1
    - _IridescenceMask: 1
    - _IridescenceThickness: 1
    - _LinkDetailsWithBase: 1
    - _MaterialID: 0
    - _Metallic: 1
    - _MetallicPower: 1
    - _Mode: 1
    - _NormalMapSpace: 0
    - _NormalScale: 1
    - _OcclusionStrength: 1
    - _OpaqueCullMode: 2
    - _PPDLodThreshold: 5
    - _PPDMaxSamples: 15
    - _PPDMinSamples: 5
    - _PPDPrimitiveLength: 1
    - _PPDPrimitiveWidth: 1
    - _Parallax: 0.02
    - _PreRefractionPass: 0
    - _RayTracing: 0
    - _ReceivesSSR: 1
    - _ReceivesSSRTransparent: 0
    - _RefractionMode: 0
    - _RefractionModel: 0
    - _RenderQueueType: 1
    - _RequireSplitLighting: 0
    - _SSRefractionProjectionModel: 0
    - _ShiverDirectionality: 0
    - _ShiverDrag: 0
    - _Smoothness: 1
    - _SmoothnessPower: 1
    - _SmoothnessRemapMax: 1
    - _SmoothnessRemapMin: 0
    - _SmoothnessTextureChannel: 0
    - _Specular: 0.073
    - _SpecularAAScreenSpaceVariance: 0.1
    - _SpecularAAThreshold: 0.2
    - _SpecularHighlights: 1
    - _SpecularOcclusionMode: 1
    - _SrcBlend: 1
    - _StencilRef: 0
    - _StencilRefDepth: 8
    - _StencilRefDistortionVec: 4
    - _StencilRefGBuffer: 10
    - _StencilRefMV: 40
    - _StencilWriteMask: 6
    - _StencilWriteMaskDepth: 8
    - _StencilWriteMaskDistortionVec: 4
    - _StencilWriteMaskGBuffer: 14
    - _StencilWriteMaskMV: 40
    - _Stiffness: 1
    - _SubsurfaceMask: 1
    - _SupportDBuffer: 0
    - _SupportDecals: 1
    - _SurfaceType: 0
    - _TexWorldScale: 1
    - _TexWorldScaleEmissive: 1
    - _Thickness: 1
    - _ThicknessMultiplier: 1
    - _TransmissionEnable: 1
    - _TransparentBackfaceEnable: 0
    - _TransparentCullMode: 2
    - _TransparentDepthPostpassEnable: 0
    - _TransparentDepthPrepassEnable: 0
    - _TransparentSortPriority: 0
    - _TransparentWritingMotionVec: 0
    - _TransparentWritingVelocity: 0
    - _TransparentZWrite: 0
    - _UVBase: 0
    - _UVDetail: 0
    - _UVEmissive: 0
    - _UVSec: 0
    - _UseEmissiveIntensity: 0
    - _UseShadowThreshold: 0
    - _WINDCOLORMIX: 0
    - _WindColorThreshold: 1
    - _WindNormalInfluence: 0
    - _ZTestDepthEqualForOpaque: 3
    - _ZTestGBuffer: 3
    - _ZTestModeDistortion: 4
    - _ZTestTransparent: 4
    - _ZWrite: 1
    - __dirty: 0
    m_Colors:
    - _BaseColor: {r: 0.6509434, g: 0.6509434, b: 0.6509434, a: 1}
    - _BaseColorMap_MipInfo: {r: 0, g: 0, b: 0, a: 0}
    - _Color: {r: 0.6509434, g: 0.6509434, b: 0.6509434, a: 1}
    - _DiffusionProfileAsset: {r: 5.4629544e+10, g: 1.0282388e+32, b: -5.388665e+13, a: 1.6297446e+27}
    - _DoubleSidedConstants: {r: 1, g: 1, b: -1, a: 0}
    - _DryColor: {r: 0.6509434, g: 0.6509434, b: 0.6509434, a: 1}
    - _EmissionColor: {r: 1, g: 1, b: 1, a: 1}
    - _EmissiveColor: {r: 0, g: 0, b: 0, a: 1}
    - _EmissiveColorLDR: {r: 0, g: 0, b: 0, a: 1}
    - _HealthyColor: {r: 0.6509434, g: 0.6509434, b: 0.6509434, a: 1}
    - _InvPrimScale: {r: 1, g: 1, b: 0, a: 0}
    - _IridescenceThicknessRemap: {r: 0, g: 1, b: 0, a: 0}
    - _NewNormal: {r: 0, g: 0, b: 0, a: 0}
    - _SpecularColor: {r: 1, g: 1, b: 1, a: 1}
    - _ThicknessRemap: {r: 0, g: 1, b: 0, a: 0}
    - _TilingOffset: {r: 1, g: 1, b: 0, a: 0}
    - _TransmittanceColor: {r: 1, g: 1, b: 1, a: 1}
    - _UVDetailsMappingMask: {r: 1, g: 0, b: 0, a: 0}
    - _UVMappingMask: {r: 1, g: 0, b: 0, a: 0}
    - _UVMappingMaskEmissive: {r: 1, g: 0, b: 0, a: 0}
    - _VertexNormalMultiply: {r: 0, g: 0, b: 0, a: 0}
    - _WindColorInfluence: {r: 0, g: 0, b: 0, a: 0}
  m_BuildTextureStacks: []
--- !u!114 &7561655029679779834
MonoBehaviour:
  m_ObjectHideFlags: 11
  m_CorrespondingSourceObject: {fileID: 0}
  m_PrefabInstance: {fileID: 0}
  m_PrefabAsset: {fileID: 0}
  m_GameObject: {fileID: 0}
  m_Enabled: 1
  m_EditorHideFlags: 0
  m_Script: {fileID: 11500000, guid: da692e001514ec24dbc4cca1949ff7e8, type: 3}
  m_Name: 
  m_EditorClassIdentifier: 
  version: 2
  hdPluginSubTargetMaterialVersions:
    m_Keys: []
    m_Values: 
